{
    "fluentMethods": true,
    "relationships": [
        {
            "relationshipType": "one-to-many",
            "relationshipName": "carLines",
            "otherEntityName": "carLines",
            "otherEntityRelationshipName": "carbrandsCarTypes"
        },
        {
            "relationshipType": "many-to-one",
            "relationshipName": "carBrands",
            "otherEntityName": "carBrands",
            "otherEntityField": "id"
        },
        {
            "relationshipType": "many-to-one",
            "relationshipName": "carTypes",
            "otherEntityName": "carTypes",
            "otherEntityField": "id"
        }
    ],
    "fields": [],
    "changelogDate": "20170816024815",
    "entityTableName": "carbrands_car_types",
    "dto": "mapstruct",
    "pagination": "no",
    "service": "serviceClass"
}