{
    "fluentMethods": true,
    "relationships": [
        {
            "relationshipType": "one-to-many",
            "relationshipName": "listValue",
            "otherEntityName": "listValues",
            "otherEntityRelationshipName": "carTypesFields"
        },
        {
            "relationshipType": "many-to-one",
            "relationshipName": "fields",
            "otherEntityName": "fields",
            "otherEntityField": "id"
        },
        {
            "relationshipType": "many-to-one",
            "relationshipName": "carTypes",
            "otherEntityName": "carTypes",
            "otherEntityField": "id"
        }
    ],
    "fields": [],
    "changelogDate": "20170816024813",
    "entityTableName": "cartypes_fields",
    "dto": "mapstruct",
    "pagination": "no",
    "service": "serviceClass"
}