{
    "fluentMethods": true,
    "relationships": [
        {
            "relationshipType": "many-to-one",
            "relationshipName": "carTypesFields",
            "otherEntityName": "cartypesFields",
            "otherEntityField": "id"
        }
    ],
    "fields": [
        {
            "fieldName": "listType",
            "fieldType": "String",
            "fieldValidateRules": [
                "required",
                "maxlength"
            ],
            "fieldValidateRulesMaxlength": 60
        },
        {
            "fieldName": "value",
            "fieldType": "String",
            "fieldValidateRules": [
                "required",
                "maxlength"
            ],
            "fieldValidateRulesMaxlength": 60
        }
    ],
    "changelogDate": "20170816024814",
    "entityTableName": "list_values",
    "dto": "mapstruct",
    "pagination": "no",
    "service": "serviceClass"
}