{
    "fluentMethods": true,
    "relationships": [
        {
            "relationshipType": "one-to-many",
            "relationshipName": "specificsCar",
            "otherEntityName": "specificsCar",
            "otherEntityRelationshipName": "years"
        }
    ],
    "fields": [
        {
            "fieldName": "year",
            "fieldType": "String",
            "fieldValidateRules": [
                "required"
            ]
        }
    ],
    "changelogDate": "20170816024809",
    "entityTableName": "years",
    "dto": "mapstruct",
    "pagination": "no",
    "service": "serviceClass"
}